\relax 
\@writefile{toc}{\contentsline {chapter}{\numberline {1}Introduction}{1}}
\@writefile{lof}{\addvspace {10\p@ }}
\@writefile{lot}{\addvspace {10\p@ }}
\citation{whitted}
\citation{radiosity}
\@writefile{toc}{\contentsline {chapter}{\numberline {2}History}{2}}
\@writefile{lof}{\addvspace {10\p@ }}
\@writefile{lot}{\addvspace {10\p@ }}
\@writefile{toc}{\contentsline {section}{\numberline {2.1}Global lighting models}{2}}
\@writefile{toc}{\contentsline {section}{\numberline {2.2}Whitted Raytracing}{2}}
\@writefile{toc}{\contentsline {section}{\numberline {2.3}Radiosity}{2}}
\citation{rendering-eq}
\citation{bi-directional}
\citation{importance-driven}
\@writefile{toc}{\contentsline {section}{\numberline {2.4}Monte Carlo Raytracing}{3}}
\newlabel{sec:MCRIntro}{{2.4}{3}}
\@writefile{toc}{\contentsline {section}{\numberline {2.5}Two-pass rendering}{3}}
\citation{photon-jensen}
\@writefile{toc}{\contentsline {section}{\numberline {2.6}Photon Mapping}{4}}
\@writefile{toc}{\contentsline {section}{\numberline {2.7}Ray-tracing of isosurfaces}{4}}
\citation{rendering-eq}
\@writefile{toc}{\contentsline {chapter}{\numberline {3}Background}{5}}
\@writefile{lof}{\addvspace {10\p@ }}
\@writefile{lot}{\addvspace {10\p@ }}
\newlabel{Background}{{3}{5}}
\@writefile{toc}{\contentsline {section}{\numberline {3.1}The Rendering Equation}{5}}
\newlabel{eq:rendering}{{3.2}{5}}
\newlabel{eq:renderingArea}{{3.4}{5}}
\newlabel{eq:geometry}{{3.5}{5}}
\citation{trumbore}
\@writefile{toc}{\contentsline {section}{\numberline {3.2}Monte Carlo Raytracer}{6}}
\@writefile{toc}{\contentsline {subsection}{\numberline {3.2.1}Raytracing Set-Up}{6}}
\@writefile{toc}{\contentsline {subsubsection}{The Viewport}{6}}
\newlabel{eq:intersection}{{3.6}{6}}
\@writefile{lof}{\contentsline {figure}{\numberline {3.1}{\ignorespaces A simple raytracing setup with a virtual cameraplane, light-source and corresponding rays.}}{6}}
\@writefile{toc}{\contentsline {subsection}{\numberline {3.2.2}Geometric optics}{6}}
\@writefile{toc}{\contentsline {subsubsection}{Wavelength dependency}{6}}
\@writefile{lof}{\contentsline {figure}{\numberline {3.2}{\ignorespaces The visible spectrum with corresponding photon energy, wavelength and frequence. Note that the range in this report is a bit wider as the lower frequencies start at 380nm.}}{7}}
\@writefile{toc}{\contentsline {subsubsection}{Reflection, Refraction}{7}}
\@writefile{lof}{\contentsline {figure}{\numberline {3.3}{\ignorespaces The three possible outcomes of light interaction with a refractive medium. Note that both reflection and refraction can occur at the same time. Also, depicted by the lower image, the change of frequency as a wave enters a medium. }}{8}}
\@writefile{toc}{\contentsline {subsection}{\numberline {3.2.3}Stochastic Path tracing}{8}}
\@writefile{toc}{\contentsline {subsubsection}{Monte Carlo integration}{8}}
\newlabel{sec:monte_carlo}{{3.2.3}{8}}
\newlabel{eq:monte_carlo}{{3.13}{8}}
\@writefile{toc}{\contentsline {subsubsection}{Integrating over the hemisphere}{9}}
\newlabel{eq:hemisphere}{{3.15}{9}}
\@writefile{lof}{\contentsline {figure}{\numberline {3.4}{\ignorespaces Hemispherical coordinates.}}{9}}
\newlabel{fig:hemi}{{3.4}{9}}
\@writefile{toc}{\contentsline {subsubsection}{Bidirectional Reflectance Distribution Function}{9}}
\newlabel{sec:BRDF}{{3.2.3}{9}}
\newlabel{eq:helmholtz}{{3.16}{9}}
\newlabel{eq:newton}{{3.17}{9}}
\@writefile{lof}{\contentsline {figure}{\numberline {3.5}{\ignorespaces A depiction of sampling across the hemisphere for a specular BRDF. }}{10}}
\@writefile{toc}{\contentsline {paragraph}{Diffuse}{10}}
\newlabel{eq:diffuse}{{3.18}{10}}
\@writefile{toc}{\contentsline {paragraph}{Modified Blinn-Phong}{10}}
\newlabel{eq:modified_blinn_phong}{{3.19}{10}}
\@writefile{toc}{\contentsline {paragraph}{Ideal mirror}{10}}
\newlabel{eq:ideal_mirror}{{3.20}{10}}
\@writefile{toc}{\contentsline {subsubsection}{Importance sampling}{10}}
\newlabel{sec:importance_sampling}{{3.2.3}{11}}
\@writefile{toc}{\contentsline {subsubsection}{Indiriect and direct light}{11}}
\@writefile{toc}{\contentsline {subsubsection}{Russian Roulette}{12}}
\@writefile{lof}{\contentsline {figure}{\numberline {3.6}{\ignorespaces Path generation during indirect illumination. Shadow rays are depicted by dotted lines. This image gives an intuitive depiction of what goes on during Monte Carlo raytracing. }}{12}}
\bibdata{bibl}
\@writefile{toc}{\contentsline {chapter}{\numberline {4}Results and Benchmarks}{13}}
\@writefile{lof}{\addvspace {10\p@ }}
\@writefile{lot}{\addvspace {10\p@ }}
\@writefile{toc}{\contentsline {section}{\numberline {4.1}Computational Framework}{13}}
\@writefile{toc}{\contentsline {section}{\numberline {4.2}Discussion}{13}}
\@writefile{lof}{\contentsline {figure}{\numberline {4.1}{\ignorespaces Four spheres rendered materials (left to right): Glass, Diffuse, Ideal Mirror, Modified Blinn-Phong}}{14}}
\newlabel{overflow}{{4.1}{14}}
\bibcite{importance-driven}{1}
\bibcite{bi-directional}{2}
\bibcite{photon-jensen}{3}
\bibcite{rendering-eq}{4}
\bibcite{radiosity}{5}
\bibcite{trumbore}{6}
\bibcite{whitted}{7}
\bibstyle{plain}
